HTML EDA: Fast Food Nutrition
…
Variable 4: Cholesterol by Type

This variable calculates the average amount of cholesterol in regards to type of food that each item fall into using the “Type” column in my data set. I create this to fully understand which types of fast food correlate to more cholesterol. This will also help with visualizations regarding what types of fast food to avoid in order to cut back on cholesterol.

# Calculate summary statistics and comment your code so I can follow your process
cholesterol_by_type <- data %>%
  group_by(Type) %>%
  summarise(cholesterol = round(mean(replace(Cholesterol.mg, is.na(Cholesterol.mg), 0)), digits = 0)
            ) %>%
  ungroup()

cholesterol_by_type

# A tibble: 152 × 2
   Type                  cholesterol
   <chr>                       <dbl>
 1 Add Ons                        13
 2 Bagels                         11
 3 Bagels & Cream Cheese          11
 4 Bakery                         34
 5 Bakery Favorites               30
 6 Beverages                       1
 7 Bottled Drinks                  9
 8 Bowls                          90
 9 Bread                           0
10 Breads                          4
# ℹ 142 more rows
…
